Elemente;Vergleiche;Vertauschungen
10;45;9
20;190;19
30;435;29
40;780;39
50;1225;49
60;1770;59
70;2415;69
80;3160;79
90;4005;89
100;4950;99
110;5995;109
120;7140;119
130;8385;129
140;9730;139
150;11175;149
